{
  "project_info": {
    "project_number": "848302609153",
    "firebase_url": "https://filmshape-6489c.firebaseio.com",
    "project_id": "filmshape-6489c",
    "storage_bucket": "filmshape-6489c.appspot.com"
  },
  "client": [
    {
      "client_info": {
        "mobilesdk_app_id": "1:848302609153:android:74e5cf3017e455d7568100",
        "android_client_info": {
          "package_name": "com.app.filmshape"
        }
      },
      "oauth_client": [
        {
          "client_id": "848302609153-konis0hd4b8s792i3eim45i3vgl2uq3i.apps.googleusercontent.com",
          "client_type": 3
        }
      ],
      "api_key": [
        {
          "current_key": "AIzaSyA7DG8e6DnnxbI867Ai0u7zoC0A_59VKso"
        }
      ],
      "services": {
        "appinvite_service": {
          "other_platform_oauth_client": [
            {
              "client_id": "848302609153-konis0hd4b8s792i3eim45i3vgl2uq3i.apps.googleusercontent.com",
              "client_type": 3
            },
            {
              "client_id": "848302609153-8hq0dfjjrqs46k977jff94t6cq5rsvhe.apps.googleusercontent.com",
              "client_type": 2,
              "ios_info": {
                "bundle_id": "com.app.filmshape"
              }
            }
          ]
        }
      }
    }
  ],
  "configuration_version": "1"
}